<?xml version="1.0" encoding="utf-8"?>
<!-- Generator: Adobe Illustrator 24.0.2, SVG Export Plug-In . SVG Version: 6.00 Build 0)  -->
<svg version="1.1" id="Capa_1" xmlns="http://www.w3.org/2000/svg" xmlns:xlink="http://www.w3.org/1999/xlink" x="0px" y="0px"
	 viewBox="0 0 40 22.8922" style="enable-background:new 0 0 40 22.8922;" xml:space="preserve">
<style type="text/css">
	.st0{fill:#FFC300;}
	.st1{fill:#EAEEF0;}
	.st2{fill:#444444;}
	.st3{fill:#383838;}
	.st4{opacity:0.31;}
	.st5{fill:#8C5213;}
	.st6{fill:#FFFFFF;}
	.st7{fill:none;stroke:#444444;stroke-width:0.2508;stroke-miterlimit:10;}
	.st8{display:none;}
	.st9{display:inline;}
</style>
<g>
	<g>
		<g>
			<path class="st0" d="M7.6482,8.5865l0.7616,9.7552c0.1678,1.831,1.7833,3.1823,3.615,3.024l24.9216,1.5265
				C38.6739,22.7428,40,21.2971,40,19.5633V3.3424c0-2.0984-1.9116-3.6774-3.9722-3.2812L10.3445,5.0005
				C8.6575,5.325,7.4915,6.8758,7.6482,8.5865z"/>
		</g>
	</g>
</g>
<g>
	<g>
		<path class="st1" d="M6.0674,22.1996c-0.0115,0.0044-0.0172,0.0065-0.0287,0.0109c-0.4309,0.1622-0.9735-0.0777-1.2105-0.5238
			c-0.2364-0.4447-0.4706-0.952-0.6686-1.5144c-0.4927-1.3989-0.3735-2.2868-0.3439-3.056c0.707-0.0298,1.0605-0.0463,1.7675-0.0821
			c0.0022,0.7821-0.0843,1.5874,0.3112,2.8796c0.1495,0.4883,0.3061,0.7931,0.4681,1.0409
			C6.6734,21.4297,6.5411,22.0209,6.0674,22.1996z"/>
	</g>
</g>
<g>
	<g>
		<path class="st1" d="M6.0221,10.2075c-1.2955,0.2507-1.9432,0.371-3.2384,0.6017c-1.7113,0.3047-2.9491,1.6824-2.7657,3.1337
			c0.0569,0.4505,0.0854,0.6766,0.1422,1.1305c0.1833,1.4622,1.7158,2.6532,3.4234,2.6036
			c1.2926-0.0376,1.9389-0.0614,3.2318-0.1191c0.7824-0.0349,1.5736,0.0872,2.3235,0.3806
			c1.9477,0.7618,2.9211,1.1719,4.8672,2.0503c-0.5174-5.7405-0.7772-8.5355-1.2987-13.9749
			c-1.7839,1.3978-2.6753,2.0506-4.4567,3.2644C7.5647,9.7455,6.8061,10.0559,6.0221,10.2075z"/>
	</g>
</g>
<g>
	<g>
		<path class="st2" d="M12.6321,6.0332c0.7751-0.2137,1.6945,2.7162,2.0519,6.6659s0.0194,7.2677-0.753,7.2892
			c-0.7725,0.0215-1.6892-3.1059-2.0492-6.8633C11.5218,9.3675,11.857,6.2469,12.6321,6.0332z"/>
	</g>
</g>
<path class="st2" d="M5.9669,17.846c-0.0108-0.1003-0.0189-0.1755-0.027-0.2507c0.1818-0.0075,0.3605-0.0148,0.5742-0.024
	c-0.2858-1.0288-0.5274-2.2911-0.6765-3.6538s-0.1827-2.6191-0.1174-3.6516c-1.1747,0.2256-1.762,0.3343-2.9364,0.5434
	c-1.7113,0.3047-2.9491,1.6824-2.7657,3.1337c0.0569,0.4505,0.0854,0.6766,0.1422,1.1305c0.1779,1.419,1.6285,2.5726,3.2747,2.5947
	c0.0202,0.1766,0.0372,0.3252,0.0629,0.5503c0.0094,0.0821,0.0883,0.1475,0.1761,0.1463c0.8738-0.0127,1.3107-0.0213,2.1846-0.0431
	c0.0879-0.0023,0.1517-0.0741,0.1422-0.1604c-0.0131-0.1223-0.0237-0.2206-0.0338-0.3146
	C5.9669,17.8464,5.9669,17.8462,5.9669,17.846z"/>
<g>
	<g>
		<g>
			<path class="st3" d="M14.0746,18.9725c-0.0254,0.0872-0.1308,0.0918-0.1718,0.0079c-0.3951-0.8099-0.9887-2.8516-1.2822-5.9622
				c-0.2935-3.1105-0.08-5.1713,0.1662-6.0417c0.0256-0.0901,0.1313-0.1178,0.1724-0.0448
				c0.3965,0.7064,0.9916,2.6371,1.2838,5.8386C14.5354,15.972,14.3205,18.1306,14.0746,18.9725z"/>
		</g>
	</g>
</g>
<g>
	<g class="st4">
		<g>
			<g>
				<path class="st5" d="M13.9904,19.9817c0.0063,0.0029,0.0095,0.0043,0.0158,0.0071c-0.0004-0.004-0.0005-0.006-0.0009-0.01
					C14.0004,19.9803,13.9952,19.9804,13.9904,19.9817z"/>
			</g>
		</g>
	</g>
</g>
<g>
	<g>
		<g>
			<g>
				<g>
					<path class="st2" d="M15.2321,7.2926c0.4043-0.0757,0.6063-0.1137,1.0106-0.1894c0.0149,0.1827,0.0224,0.2739,0.0373,0.4566
						c-0.404,0.0716-0.6059,0.1074-1.0099,0.1791C15.2549,7.5603,15.2473,7.471,15.2321,7.2926z M15.4752,8.2294
						c0.3999-0.0701,0.3625-0.1051,0.7625-0.1752c0.1383,1.2386,0.1876,1.5171,0.2971,2.624
						c-0.3981,0.0427-0.5971,0.064-0.9952,0.1068C15.5204,9.6596,15.496,9.4196,15.4752,8.2294z"/>
				</g>
			</g>
		</g>
		<g>
			<g>
				<g>
					<path class="st2" d="M18.1887,7.6143c-0.0655,1.1709-0.0979,1.7516-0.162,2.9038c-0.4129,0.0443-0.6192,0.0664-1.032,0.1107
						c0.1608-1.5437,0.2421-2.3275,0.4061-3.9189c0.2838-0.0543,0.4256-0.0814,0.7094-0.1356
						C18.1417,6.9903,18.1573,7.1982,18.1887,7.6143z M18.9669,10.4172c-0.0642-0.3126-0.0964-0.4685-0.1608-0.7797
						c-0.221,0.0274-0.3315,0.0412-0.5524,0.0686C18.2631,9.504,18.2678,9.4028,18.2774,9.2
						c0.172-0.0233,0.2581-0.0349,0.4301-0.058c-0.1333-0.6265-0.2002-0.9384-0.3339-1.559
						c-0.0313-0.4177-0.0469-0.6265-0.0782-1.0442c0.2837-0.0543,0.4255-0.0814,0.7092-0.1356
						c0.3995,1.5372,0.5986,2.3179,0.9947,3.9032C19.5863,10.3508,19.3798,10.373,18.9669,10.4172z"/>
				</g>
			</g>
		</g>
		<g>
			<g>
				<g>
					<path class="st2" d="M21.4398,10.1519c-0.4169,0.0447-0.6253,0.0671-1.0422,0.1118c-0.1133-1.6291-0.1698-2.4438-0.2829-4.0728
						c0.4194-0.0802,0.629-0.1203,1.0484-0.2005C21.2738,7.6549,21.3291,8.4872,21.4398,10.1519z M22.8091,10.0049
						c-0.4701,0.0505-0.705,0.0756-1.175,0.1261C21.62,9.9175,21.613,9.8107,21.5989,9.5972
						c0.4704-0.0556,0.7056-0.0834,1.1759-0.1388C22.7886,9.677,22.7954,9.7864,22.8091,10.0049z"/>
				</g>
			</g>
		</g>
		<g>
			<g>
				<g>
					<path class="st2" d="M24.2092,9.8547c-0.4169,0.0447-0.6254,0.0671-1.0422,0.1118c-0.1066-1.7234-0.1598-2.5851-0.2664-4.3083
						c0.4194-0.0802,0.629-0.1203,1.0484-0.2005C24.0531,7.2164,24.105,8.0959,24.2092,9.8547z M25.3586,5.7708
						c-0.4726,0.0853-0.7087,0.128-1.1812,0.2133c-0.0132-0.2255-0.0199-0.3382-0.0331-0.5637
						c0.4729-0.0904,0.7093-0.1356,1.1821-0.226C25.3394,5.4249,25.3458,5.5402,25.3586,5.7708z M25.1923,7.7821
						c-0.3606,0.0519-0.5409,0.0778-0.9016,0.1298c-0.0132-0.2255-0.0199-0.3383-0.0331-0.5638
						c0.3609-0.0559,0.5414-0.0838,0.9023-0.1396C25.1727,7.438,25.1793,7.5526,25.1923,7.7821z M25.5786,9.7077
						c-0.4701,0.0505-0.7051,0.0756-1.1751,0.1261c-0.0132-0.2255-0.0199-0.3383-0.0331-0.5638
						c0.4704-0.0556,0.7056-0.0834,1.1759-0.1388C25.5592,9.3618,25.5657,9.4771,25.5786,9.7077z"/>
				</g>
			</g>
		</g>
		<g>
			<g>
				<g>
					<path class="st2" d="M27.0704,9.5477c-0.4169,0.0447-0.6254,0.0671-1.0423,0.1118c-0.0832-1.5172-0.1662-3.0344-0.2494-4.5517
						c0.4194-0.0802,0.629-0.1203,1.0484-0.2005C26.9083,6.4541,26.9894,8.0009,27.0704,9.5477z M28.6564,7.3099
						c0.04,0.8226,0.0601,1.2341,0.1002,2.0568c-0.4169,0.0447-0.6254,0.0671-1.0423,0.1118
						c-0.0417-0.8178-0.0626-1.2267-0.1042-2.0445c-0.1845,0.0266-0.2767,0.0398-0.4612,0.0664
						c-0.0123-0.2378-0.0186-0.3569-0.0309-0.5947c0.1847-0.0286,0.2769-0.0428,0.4615-0.0714
						c-0.0295-0.5779-0.0442-0.8668-0.0737-1.4446c-0.185,0.0334-0.2775,0.0501-0.4623,0.0835
						c-0.0124-0.2404-0.0188-0.3607-0.0312-0.6012c0.3948-0.0754,0.5923-0.1133,0.9871-0.1888
						c0.2163,0.0927,0.3243,0.1397,0.5404,0.2348c0.0335,0.6886,0.0504,1.033,0.0839,1.7215
						c-0.2026,0.1666-0.3038,0.2492-0.5063,0.4133C28.3331,7.1545,28.4409,7.2059,28.6564,7.3099z"/>
				</g>
			</g>
		</g>
		<g>
			<g>
				<g>
					<path class="st2" d="M31.902,4.5894c-1.1053,0.1996-1.6578,0.2993-2.7632,0.4988c-0.0117-0.247-0.0177-0.3704-0.0294-0.6174
						c1.1061-0.2116,1.6591-0.3173,2.7652-0.5287C31.8855,4.201,31.891,4.3306,31.902,4.5894z M31.2297,9.1013
						c-0.417,0.0447-0.6255,0.0671-1.0424,0.1118c-0.076-1.6604-0.1141-2.4906-0.19-4.1508
						c0.4191-0.0747,0.6286-0.112,1.0476-0.1869C31.1189,6.5657,31.1558,7.4109,31.2297,9.1013z"/>
				</g>
			</g>
		</g>
		<g>
			<g>
				<g>
					<path class="st2" d="M33.4199,5.0409c-0.092,1.5494-0.1376,2.3194-0.2282,3.85c-0.4129,0.0443-0.6193,0.0664-1.032,0.1107
						c0.1658-1.7363,0.3313-3.4725,0.4965-5.2089c0.2838-0.0543,0.4256-0.0814,0.7094-0.1356
						C33.3872,4.2106,33.3981,4.4873,33.4199,5.0409z M34.1319,8.79c-0.057-0.4161-0.0856-0.6237-0.1427-1.0383
						c-0.221,0.0275-0.3315,0.0412-0.5524,0.0686c0.014-0.268,0.0211-0.4022,0.0352-0.6709c0.172-0.0233,0.2581-0.0349,0.4302-0.058
						c-0.1188-0.8357-0.1782-1.2521-0.2973-2.0816c-0.0217-0.5551-0.0325-0.8328-0.0542-1.3879
						c0.2837-0.0543,0.4255-0.0814,0.7092-0.1356c0.3045,1.7306,0.6059,3.4615,0.9043,5.1931
						C34.751,8.7236,34.5446,8.7456,34.1319,8.79z"/>
				</g>
			</g>
		</g>
		<g>
			<g>
				<g>
					<path class="st2" d="M36.5084,7.2208c-0.4172,0.0502-0.4675,0.0752-0.8847,0.1254c-0.0544-1.5147-0.2096-2.5555-0.264-4.0704
						c0.4193-0.0802,0.629-0.1203,1.0483-0.2005C36.4606,4.615,36.4558,5.6809,36.5084,7.2208z M36.6045,8.5246
						c-0.4209,0.0451-0.6314,0.0678-1.0523,0.1129c-0.0098-0.2739-0.0147-0.411-0.0246-0.6849
						c0.4212-0.0498,0.6319-0.0746,1.0531-0.1243C36.5902,8.1067,36.5949,8.2461,36.6045,8.5246z"/>
				</g>
			</g>
		</g>
		<g>
			<g>
				<g>
					<path class="st6" d="M15.6074,11.6359c0.6394-0.0608,0.9591-0.0912,1.5984-0.1521c0.348-0.0331,0.615,0.0218,0.8006,0.1675
						c0.1855,0.1458,0.2894,0.3697,0.3119,0.6692c0.0232,0.308-0.0531,0.555-0.2283,0.7384
						c-0.1755,0.1834-0.4563,0.2839-0.843,0.3046c-0.2099,0.0112-0.3148,0.017-0.5247,0.0281
						c0.0352,0.436,0.0528,0.6541,0.0879,1.0903c-0.3846,0.0111-0.5769,0.0168-0.9615,0.0278
						C15.7522,13.3603,15.704,12.7854,15.6074,11.6359z M16.6744,12.7966c0.094-0.0063,0.141-0.0094,0.235-0.0157
						c0.185-0.0123,0.3126-0.0518,0.3827-0.1187c0.0698-0.0668,0.1012-0.1488,0.0937-0.2452
						c-0.0073-0.0937-0.046-0.1707-0.1163-0.2306c-0.0702-0.0599-0.195-0.0822-0.3745-0.0676
						c-0.1094,0.0089-0.1641,0.0133-0.2735,0.0223C16.6426,12.4034,16.6532,12.5345,16.6744,12.7966z"/>
				</g>
			</g>
		</g>
		<g>
			<g>
				<g>
					<path class="st6" d="M18.9908,14.4188c-0.0907-1.2333-0.136-1.85-0.2268-3.0833c0.641-0.061,0.9616-0.0915,1.6026-0.1525
						c0.2971-0.0282,0.5261-0.0237,0.6867,0.0146c0.1607,0.0382,0.2937,0.1252,0.3993,0.2613s0.1653,0.309,0.179,0.517
						c0.0118,0.1815-0.0147,0.3408-0.0796,0.4769c-0.0648,0.1361-0.1588,0.2489-0.2821,0.3378
						c-0.0784,0.0566-0.1879,0.1059-0.3282,0.1479c0.1169,0.0329,0.2029,0.068,0.2576,0.1048
						c0.0371,0.0245,0.0921,0.0783,0.1647,0.1621s0.122,0.149,0.1477,0.1952c0.2106,0.3684,0.3157,0.5544,0.5257,0.9299
						c-0.4326,0.0125-0.6489,0.0188-1.0816,0.0313c-0.2312-0.387-0.347-0.5784-0.5788-0.9571
						c-0.0737-0.1226-0.1372-0.2017-0.1906-0.2356c-0.0715-0.0454-0.1527-0.0653-0.2399-0.0604
						c-0.0339,0.0019-0.0509,0.0028-0.0847,0.0048c0.0361,0.5109,0.0542,0.7665,0.0902,1.2775
						C19.5675,14.4022,19.3753,14.4077,18.9908,14.4188z M19.8198,12.5189c0.1619-0.0111,0.2428-0.0167,0.4047-0.0277
						c0.0437-0.003,0.1276-0.0232,0.2512-0.0609c0.0628-0.0175,0.1123-0.0545,0.149-0.1112
						c0.0365-0.0567,0.0526-0.1202,0.0477-0.1901c-0.007-0.1035-0.0443-0.1805-0.1116-0.2307
						c-0.0673-0.0503-0.1889-0.0679-0.364-0.0536c-0.1687,0.0138-0.2532,0.0208-0.422,0.0346
						C19.7926,12.1351,19.8018,12.2631,19.8198,12.5189z"/>
				</g>
			</g>
		</g>
		<g>
			<g>
				<g>
					<path class="st6" d="M22.1307,11.0152c1.0308-0.0981,1.5463-0.1472,2.5771-0.2453c0.0171,0.297,0.0256,0.4456,0.0425,0.7425
						c-0.6446,0.0523-0.967,0.0783-1.6117,0.1307c0.0131,0.2143,0.0198,0.3214,0.0329,0.5358
						c0.5975-0.0421,0.8964-0.0632,1.4939-0.1054c0.0163,0.2831,0.0245,0.4246,0.0408,0.7077
						c-0.597,0.034-0.8956,0.0511-1.4925,0.0852c0.0163,0.2658,0.0245,0.3987,0.0408,0.6646
						c0.6616-0.0291,0.9925-0.0437,1.6541-0.0727c0.0181,0.3153,0.0271,0.473,0.045,0.7882
						c-1.0446,0.0302-1.5671,0.0453-2.6118,0.0755C22.2574,12.9992,22.2151,12.3379,22.1307,11.0152z"/>
				</g>
			</g>
		</g>
		<g>
			<g>
				<g>
					<path class="st6" d="M27.4549,12.6768c0.3423,0.1007,0.5133,0.152,0.8552,0.2564c-0.0424,0.2846-0.1197,0.5234-0.2315,0.716
						c-0.1118,0.1926-0.2551,0.3388-0.4298,0.4391c-0.1748,0.1003-0.4009,0.1537-0.6782,0.1615
						c-0.3366,0.0093-0.6147-0.0398-0.8344-0.1459c-0.2195-0.1057-0.4146-0.2964-0.5853-0.57
						c-0.1706-0.2735-0.2681-0.6262-0.2927-1.0615c-0.0326-0.5803,0.0789-1.0358,0.3353-1.3738
						c0.2564-0.338,0.6353-0.5348,1.1363-0.5829c0.3921-0.0378,0.705,0.025,0.9387,0.1917s0.4146,0.4414,0.5427,0.8242
						c-0.3347,0.1158-0.502,0.1729-0.8365,0.2859c-0.0354-0.1091-0.0708-0.1881-0.1059-0.2369
						c-0.0581-0.0821-0.1272-0.1431-0.2074-0.1832c-0.08-0.0399-0.1683-0.0561-0.2644-0.0482
						c-0.2178,0.0177-0.3788,0.1341-0.4843,0.3431c-0.0786,0.1559-0.1107,0.3935-0.0935,0.7131
						c0.0214,0.3959,0.0882,0.6644,0.2005,0.8066c0.1122,0.1423,0.2627,0.2099,0.4518,0.2018
						c0.1834-0.0079,0.3186-0.074,0.4062-0.1991C27.3651,13.0894,27.4244,12.9101,27.4549,12.6768z"/>
				</g>
			</g>
		</g>
		<g>
			<g>
				<g>
					<path class="st6" d="M28.6922,10.3909c0.3856-0.0366,0.5783-0.055,0.9639-0.0918c0.0704,1.5224,0.1057,2.2836,0.1762,3.806
						c-0.3838,0.0111-0.5756,0.0167-0.9594,0.0277C28.8006,12.6361,28.7645,11.8877,28.6922,10.3909z"/>
				</g>
			</g>
		</g>
		<g>
			<g>
				<g>
					<path class="st6" d="M30.3119,12.1696c-0.0283-0.6274,0.0909-1.1259,0.3581-1.5027c0.2673-0.3769,0.6537-0.5933,1.1591-0.642
						c0.518-0.0499,0.9244,0.0893,1.2188,0.4249c0.2943,0.3356,0.4541,0.8338,0.4797,1.487
						c0.0185,0.4742-0.0273,0.8668-0.1373,1.1745c-0.1101,0.308-0.2771,0.549-0.5006,0.7232
						c-0.2236,0.1741-0.5071,0.2647-0.8508,0.2742c-0.3492,0.0097-0.6414-0.053-0.8764-0.1858
						c-0.235-0.1327-0.4305-0.3465-0.5863-0.6405C30.4204,12.9887,30.3323,12.6189,30.3119,12.1696z M31.2716,12.1154
						c0.0171,0.3945,0.0875,0.6747,0.2115,0.8419c0.1237,0.1673,0.2857,0.2475,0.4859,0.2388
						c0.2057-0.0089,0.3616-0.1014,0.4672-0.2787c0.1057-0.1773,0.1497-0.4903,0.1314-0.9371
						c-0.0153-0.376-0.0857-0.6468-0.2105-0.8105c-0.1249-0.1637-0.2888-0.2369-0.4911-0.2207
						c-0.1938,0.0156-0.3455,0.1152-0.4555,0.2971C31.3007,11.4282,31.2544,11.7173,31.2716,12.1154z"/>
				</g>
			</g>
		</g>
		<g>
			<g>
				<g>
					<path class="st6" d="M33.905,12.6357c0.3636-0.0487,0.5455-0.0731,0.9092-0.1227c0.0268,0.1968,0.0727,0.3456,0.1371,0.4467
						c0.1048,0.1636,0.2489,0.2421,0.4321,0.2345c0.1368-0.0056,0.2404-0.0532,0.3116-0.1432
						c0.071-0.0901,0.1043-0.1927,0.1002-0.3076c-0.0038-0.1089-0.0425-0.2048-0.1161-0.2871
						c-0.0735-0.0821-0.241-0.1539-0.4996-0.2159c-0.4241-0.1016-0.7315-0.2531-0.9184-0.4482
						c-0.1878-0.1957-0.2891-0.4521-0.3014-0.7718c-0.008-0.2101,0.0307-0.4121,0.1163-0.6075
						c0.0856-0.1954,0.2192-0.3555,0.4013-0.4808c0.182-0.1253,0.435-0.2042,0.7593-0.2355
						c0.3975-0.0383,0.7044,0.0323,0.9198,0.2145c0.2158,0.1823,0.3507,0.4936,0.4053,0.9324
						c-0.361,0.0568-0.5416,0.085-0.9026,0.1409c-0.0308-0.1874-0.0861-0.3207-0.1662-0.4003
						c-0.08-0.0793-0.188-0.1133-0.3237-0.1018c-0.1116,0.0093-0.1948,0.0482-0.249,0.1162
						c-0.0542,0.068-0.0797,0.1471-0.0763,0.2376c0.0024,0.066,0.0296,0.1236,0.0765,0.1729
						c0.0473,0.0498,0.1566,0.0942,0.3277,0.1293c0.424,0.0906,0.729,0.1939,0.9147,0.3077
						c0.1858,0.1139,0.3234,0.2625,0.4123,0.4454c0.089,0.183,0.1373,0.3914,0.145,0.6243
						c0.0092,0.2736-0.0373,0.5287-0.1394,0.7634c-0.1022,0.2346-0.2499,0.4141-0.443,0.5383
						c-0.193,0.1242-0.4397,0.1897-0.7395,0.1981c-0.5268,0.0146-0.8965-0.1108-1.1096-0.3727
						C34.0757,13.3809,33.9477,13.0464,33.905,12.6357z"/>
				</g>
			</g>
		</g>
		<g>
			<g>
				<g>
					<path class="st6" d="M15.954,15.4272c0.7917-0.0087,1.1875-0.0131,1.9791-0.0219c0.3297-0.0036,0.5892,0.0733,0.7777,0.2339
						c0.1886,0.1605,0.2917,0.3621,0.3095,0.602c0.0148,0.2012-0.0353,0.3734-0.1504,0.5143
						c-0.0767,0.094-0.1938,0.1667-0.3511,0.218c0.2497,0.0638,0.4375,0.1689,0.5636,0.3155
						c0.1262,0.1467,0.1972,0.3293,0.2132,0.5469c0.0129,0.1769-0.0163,0.3344-0.088,0.471s-0.1758,0.2414-0.3122,0.3144
						c-0.0844,0.0455-0.2149,0.0741-0.3911,0.086c-0.2345,0.0159-0.3905,0.0209-0.4677,0.0159
						c-0.7262-0.0457-1.0894-0.0687-1.8157-0.1145C16.1141,17.3361,16.0606,16.6999,15.954,15.4272z M17.1231,16.6942
						c0.1835,0.0033,0.2753,0.0049,0.4587,0.0082c0.1646,0.0029,0.2769-0.0224,0.3373-0.0765
						c0.0602-0.054,0.0862-0.1333,0.078-0.2378c-0.0074-0.0967-0.0454-0.1727-0.1141-0.2274
						c-0.0689-0.0547-0.1832-0.0823-0.3434-0.083c-0.1865-0.0007-0.2797-0.001-0.4662-0.0018
						C17.0933,16.3232,17.1032,16.4468,17.1231,16.6942z M17.2257,17.9751c0.2148,0.01,0.3221,0.0151,0.5369,0.0252
						c0.1813,0.0085,0.3067-0.0168,0.3762-0.0762c0.0694-0.0594,0.1002-0.1423,0.0922-0.2487
						c-0.0076-0.0987-0.0506-0.1795-0.1288-0.2416c-0.0783-0.0624-0.2098-0.0962-0.3944-0.1021
						c-0.214-0.0068-0.321-0.0102-0.5352-0.0172C17.1939,17.5788,17.2045,17.7109,17.2257,17.9751z"/>
				</g>
			</g>
		</g>
		<g>
			<g>
				<g>
					<path class="st6" d="M21.8895,18.3736c-0.4781-0.0243-0.7171-0.0364-1.1952-0.0607c-0.0504,0.2287-0.0754,0.3428-0.1257,0.57
						c-0.4295-0.0271-0.6444-0.0407-1.0739-0.0678c0.4118-1.3373,0.6191-2.0252,1.0363-3.4385
						c0.4613-0.0051,0.692-0.0077,1.1534-0.0127c0.6092,1.4361,0.9124,2.1731,1.5164,3.685
						c-0.4406-0.0278-0.6608-0.0417-1.1014-0.0694C22.0154,18.7362,21.9735,18.6149,21.8895,18.3736z M21.6197,17.5864
						c-0.1849-0.5213-0.2775-0.7798-0.4628-1.2931c-0.1148,0.5108-0.1719,0.7643-0.2861,1.2672
						C21.1703,17.5709,21.3202,17.5761,21.6197,17.5864z"/>
				</g>
			</g>
		</g>
		<g>
			<g>
				<g>
					<path class="st6" d="M24.7299,15.33c0.4238-0.0047,0.6359-0.007,1.0598-0.0117c0.0469,0.8491,0.0704,1.2738,0.1174,2.123
						c0.0246,0.4457,0.0088,0.7836-0.0472,1.0125c-0.0561,0.2286-0.1838,0.4178-0.3829,0.5653s-0.4612,0.2094-0.7863,0.1886
						c-0.3438-0.0221-0.6129-0.091-0.808-0.2048c-0.1952-0.114-0.3502-0.2711-0.4652-0.4719
						c-0.1151-0.2005-0.1909-0.4439-0.2274-0.731c0.3991-0.0443,0.5989-0.0671,0.9982-0.1139
						c0.0114,0.1667,0.0323,0.2911,0.0618,0.3728c0.0295,0.0817,0.0751,0.1492,0.1372,0.2019
						c0.0422,0.0346,0.1006,0.0537,0.1748,0.0571c0.1177,0.0055,0.2013-0.0394,0.2506-0.135
						c0.0493-0.0957,0.0673-0.2604,0.0539-0.4934C24.8118,16.7456,24.7845,16.2737,24.7299,15.33z"/>
				</g>
			</g>
		</g>
		<g>
			<g>
				<g>
					<path class="st6" d="M26.4681,17.2895c-0.0348-0.6448,0.0934-1.1441,0.3855-1.5073c0.2918-0.3629,0.7158-0.5525,1.2713-0.5594
						c0.5697-0.007,1.0176,0.1711,1.3432,0.5435c0.3256,0.3726,0.5037,0.9025,0.535,1.5803
						c0.0228,0.4923-0.0258,0.8939-0.1451,1.2014c-0.1194,0.3078-0.3016,0.5405-0.5465,0.6983
						c-0.245,0.1578-0.5562,0.2226-0.9337,0.1983c-0.384-0.0247-0.7052-0.1183-0.9644-0.2777
						c-0.2589-0.1591-0.4753-0.3975-0.6481-0.7133C26.592,18.1379,26.493,17.751,26.4681,17.2895z M27.523,17.3222
						c0.021,0.4068,0.1001,0.701,0.237,0.8845c0.1371,0.1838,0.3155,0.2818,0.5357,0.2921c0.2262,0.0107,0.397-0.0695,0.5124-0.2423
						s0.1618-0.4911,0.1393-0.9535c-0.0189-0.3892-0.0975-0.6747-0.2358-0.8547c-0.1385-0.1802-0.3191-0.27-0.5413-0.271
						c-0.2131-0.001-0.3796,0.088-0.4993,0.2649C27.5511,16.6193,27.5018,16.912,27.523,17.3222z"/>
				</g>
			</g>
		</g>
		<g>
			<g>
				<g>
					<path class="st6" d="M30.4212,18.1056c0.3996-0.0157,0.5995-0.024,0.9991-0.0409c0.0307,0.2066,0.0816,0.3656,0.153,0.4768
						c0.1162,0.1799,0.2747,0.2756,0.4763,0.2855c0.1501,0.0074,0.2641-0.0322,0.3417-0.119
						c0.0775-0.0867,0.114-0.1905,0.1089-0.3104c-0.0047-0.1139-0.0477-0.2176-0.1289-0.3099
						c-0.0812-0.0924-0.2658-0.1829-0.5505-0.2718c-0.467-0.1458-0.8053-0.3313-1.012-0.5508
						c-0.2075-0.2204-0.3202-0.4949-0.3352-0.8273c-0.0098-0.2184,0.0319-0.4243,0.1249-0.6191s0.2395-0.3495,0.439-0.4636
						c0.1994-0.1141,0.4777-0.1742,0.8342-0.1787c0.4373-0.0054,0.7751,0.0946,1.013,0.3033
						c0.2379,0.2089,0.3878,0.5459,0.4497,1.0089c-0.3968,0.0266-0.5953,0.0395-0.9921,0.0651
						c-0.0347-0.1977-0.0961-0.3416-0.1848-0.4314c-0.0883-0.0899-0.2071-0.1345-0.3565-0.1347
						c-0.1229-0.0002-0.2139,0.0329-0.2733,0.0986c-0.0593,0.0657-0.0869,0.1455-0.0828,0.2399
						c0.003,0.0687,0.0332,0.131,0.0849,0.1864c0.0521,0.0558,0.1725,0.1121,0.3609,0.1641
						c0.4667,0.1327,0.8025,0.2682,1.0073,0.4041c0.2048,0.1358,0.3566,0.3036,0.4552,0.5029
						c0.0986,0.1991,0.1527,0.4214,0.1623,0.6654c0.0113,0.2867-0.0386,0.5482-0.1499,0.783
						c-0.1112,0.2349-0.2727,0.4073-0.4845,0.5178c-0.2117,0.1103-0.4822,0.1538-0.8119,0.1326
						c-0.579-0.0372-0.9861-0.2045-1.2215-0.4967C30.6124,18.8937,30.4701,18.5347,30.4212,18.1056z"/>
				</g>
			</g>
		</g>
	</g>
</g>
<g>
	<g>
		<g>
			<path class="st7" d="M36.7213,19.7012"/>
		</g>
	</g>
</g>
<g>
	<g>
		<g>
			<path class="st7" d="M16.2209,18.3824"/>
		</g>
	</g>
</g>
<g>
	<g>
		<g>
			<path class="st7" d="M37.0374,14.821"/>
		</g>
	</g>
</g>
<g>
	<g>
		<g>
			<path class="st7" d="M15.9692,15.1902"/>
		</g>
	</g>
</g>
<g class="st8">
	<g class="st9">
		<g>
			<g>
				<g>
					<path class="st2" d="M36.7213,18.1561c-0.6059,0.7602-0.9168,1.0777-1.5708,1.6908c-0.6338-0.8461-1.0029-1.2934-1.6142-1.9665
						c0.1542,0.0021,0.3673,0.0293,0.5063,0.0345c0.0085-1.1182-0.0005-1.6137,0.0135-2.775
						c0.9051-0.0921,1.3474-0.0583,2.2523-0.1545c-0.0059,1.3199-0.0015,1.8738-0.0065,3.1364
						C36.4448,18.1333,36.5616,18.1429,36.7213,18.1561z"/>
				</g>
			</g>
		</g>
	</g>
</g>
<g class="st8">
	<g class="st9">
		<g>
			<g>
				<path class="st2" d="M36.4467,18.2549c-0.8976-0.0246-1.3465-0.0367-2.2441-0.0605c0.0075-1.2116,0.0113-1.8177,0.0188-3.0305
					c0.8976-0.0477,1.3464-0.0713,2.244-0.1181C36.4579,16.3301,36.4542,16.9719,36.4467,18.2549z"/>
			</g>
		</g>
		<g>
			<g>
				<path class="st2" d="M35.3064,19.92c0.6292-0.676,0.9438-1.0284,1.573-1.7618C35.6265,18.1368,35,18.1262,33.747,18.105
					C34.3707,18.8025,34.6826,19.1655,35.3064,19.92z"/>
			</g>
		</g>
	</g>
</g>
<g>
	<path class="st2" d="M36.7213,18.2347c-0.5969,0.5918-0.8954,0.8794-1.4924,1.4382c-0.6232-0.6409-0.9348-0.9528-1.5579-1.5594
		c0.1918,0.0076,0.2876,0.0114,0.4794,0.019c0-1.2045,0-1.8068,0-3.0111c0.8366-0.0141,1.255-0.0211,2.0915-0.0351
		c0,1.2516,0,1.8776,0,3.1294C36.4337,18.2233,36.5295,18.2271,36.7213,18.2347z"/>
</g>
</svg>
